0 info it worked if it ends with ok
1 verbose cli [ 'C:\\Program Files\\nodejs\\node.exe',
1 verbose cli   'C:\\Users\\Jed\\AppData\\Roaming\\npm\\node_modules\\npm\\bin\\npm-cli.js',
1 verbose cli   'run',
1 verbose cli   'serve' ]
2 info using npm@3.10.5
3 info using node@v5.11.0
4 verbose run-script [ 'preserve', 'serve', 'postserve' ]
5 info lifecycle dashboardAlpha@0.0.1~preserve: dashboardAlpha@0.0.1
6 silly lifecycle dashboardAlpha@0.0.1~preserve: no script for preserve, continuing
7 info lifecycle dashboardAlpha@0.0.1~serve: dashboardAlpha@0.0.1
8 verbose lifecycle dashboardAlpha@0.0.1~serve: unsafe-perm in lifecycle true
9 verbose lifecycle dashboardAlpha@0.0.1~serve: PATH: C:\Users\Jed\AppData\Roaming\npm\node_modules\npm\bin\node-gyp-bin;c:\React\dashboard-material\node_modules\.bin;C:\Program Files\nodejs;C:\Program Files\AMD APP\bin\x86;C:\Windows\system32;C:\Windows;C:\Windows\System32\Wbem;C:\Windows\System32\WindowsPowerShell\v1.0\;C:\Program Files\Skype\Phone\;C:\Program Files\ATI Technologies\ATI.ACE\Core-Static;C:\Program Files\Git\cmd;C:\Users\Jed\AppData\Roaming\nvm;C:\Program Files\nodejs;C:\Ruby22\bin;C:\Users\Jed\AppData\Roaming\npm;C:\xampp\php\php.exe;C:\Users\Jed\AppData\Local\atom\bin;C:\Users\Jed\AppData\Roaming\nvm;C:\Program Files\nodejs
10 verbose lifecycle dashboardAlpha@0.0.1~serve: CWD: c:\React\dashboard-material
11 silly lifecycle dashboardAlpha@0.0.1~serve: Args: [ '/d /s /c', 'node server.js --env=dev' ]
12 silly lifecycle dashboardAlpha@0.0.1~serve: Returned: code: 3221225786  signal: null
13 info lifecycle dashboardAlpha@0.0.1~serve: Failed to exec serve script
14 verbose stack Error: dashboardAlpha@0.0.1 serve: `node server.js --env=dev`
14 verbose stack Exit status 3221225786
14 verbose stack     at EventEmitter.<anonymous> (C:\Users\Jed\AppData\Roaming\npm\node_modules\npm\lib\utils\lifecycle.js:242:16)
14 verbose stack     at emitTwo (events.js:100:13)
14 verbose stack     at EventEmitter.emit (events.js:185:7)
14 verbose stack     at ChildProcess.<anonymous> (C:\Users\Jed\AppData\Roaming\npm\node_modules\npm\lib\utils\spawn.js:40:14)
14 verbose stack     at emitTwo (events.js:100:13)
14 verbose stack     at ChildProcess.emit (events.js:185:7)
14 verbose stack     at maybeClose (internal/child_process.js:850:16)
14 verbose stack     at Process.ChildProcess._handle.onexit (internal/child_process.js:215:5)
15 verbose pkgid dashboardAlpha@0.0.1
16 verbose cwd c:\React\dashboard-material
17 error Windows_NT 6.1.7601
18 error argv "C:\\Program Files\\nodejs\\node.exe" "C:\\Users\\Jed\\AppData\\Roaming\\npm\\node_modules\\npm\\bin\\npm-cli.js" "run" "serve"
19 error node v5.11.0
20 error npm  v3.10.5
21 error code ELIFECYCLE
22 error dashboardAlpha@0.0.1 serve: `node server.js --env=dev`
22 error Exit status 3221225786
23 error Failed at the dashboardAlpha@0.0.1 serve script 'node server.js --env=dev'.
23 error Make sure you have the latest version of node.js and npm installed.
23 error If you do, this is most likely a problem with the dashboardAlpha package,
23 error not with npm itself.
23 error Tell the author that this fails on your system:
23 error     node server.js --env=dev
23 error You can get information on how to open an issue for this project with:
23 error     npm bugs dashboardAlpha
23 error Or if that isn't available, you can get their info via:
23 error     npm owner ls dashboardAlpha
23 error There is likely additional logging output above.
24 verbose exit [ 1, true ]
